…
To convert this map into hexagonal coordinates, we can use the spsample function to sample a hexagonal lattice. Through experimentation, a cellsize of 2 is roughly appropriate for the number of hexagons submitted to us. As it is a random process, some repetition may be needed to get the exact number of hexagons on the map with a nice layout.

hex_points <- aus %>%
  spsample(type = "hexagonal", cellsize = 2)

as_tibble(hex_points@coords)

#> # A tibble: 201 x 2
#>        x     y
#>    <dbl> <dbl>
#>  1  146. -43.3
#>  2  145. -41.6
#>  3  147. -41.6
#>  4  141. -38.1
#>  5  143. -38.1
#>  6  145. -38.1
#>  7  147. -38.1
#>  8  140. -36.4
#>  9  142. -36.4
#> 10  144. -36.4
#> # … with 191 more rows
…
