…
With the package now available on CRAN, it is now easier than ever to install:

install.packages("feasts")

To see what is on feasts’ menu, we’ll start by loading a few packages:

library(tidyverse)
library(tsibble)
library(feasts)

In particular, we’ll be exploring the total quarterly Australian domestic overnight trips for a variety of locations and purposes around Australia.

tourism

## # A tsibble: 24,320 x 5 [1Q]
## # Key:       Region, State, Purpose [304]
##    Quarter Region   State           Purpose  Trips
##      <qtr> <chr>    <chr>           <chr>    <dbl>
##  1 1998 Q1 Adelaide South Australia Business  135.
##  2 1998 Q2 Adelaide South Australia Business  110.
##  3 1998 Q3 Adelaide South Australia Business  166.
##  4 1998 Q4 Adelaide South Australia Business  127.
##  5 1999 Q1 Adelaide South Australia Business  137.
##  6 1999 Q2 Adelaide South Australia Business  200.
##  7 1999 Q3 Adelaide South Australia Business  169.
##  8 1999 Q4 Adelaide South Australia Business  134.
##  9 2000 Q1 Adelaide South Australia Business  154.
## 10 2000 Q2 Adelaide South Australia Business  169.
## # … with 24,310 more rows
…
Features

A big feature of feasts is the ability to extract a set of features (single value summary of data characteristics) from the time series.

Features are particularly useful for visualising large collections of time series. Plotting multiple time series using the above methods do not scale very well beyond 10 similar series, and the original tourism dataset contains 304 (and even more if you consider aggregates)!

The STL decomposition above can be used to compute features about the strength of the its trend and seasonality components, allowing us to see an overview of the entire dataset’s patterns.

tourism %>% 
  features(Trips, feature_set(tags = "stl"))

## # A tibble: 304 x 10
##    Region State Purpose trend_strength seasonal_streng… spikiness linearity
##    <chr>  <chr> <chr>            <dbl>            <dbl>     <dbl>     <dbl>
##  1 Adela… Sout… Busine…          0.451            0.380   1.62e+2    -5.51 
##  2 Adela… Sout… Holiday          0.541            0.601   9.95e+0    48.9  
##  3 Adela… Sout… Other            0.743            0.189   2.28e+0    95.0  
##  4 Adela… Sout… Visiti…          0.433            0.446   6.01e+1    34.9  
##  5 Adela… Sout… Busine…          0.453            0.140   1.18e-1     0.944
##  6 Adela… Sout… Holiday          0.512            0.244   1.92e-1    10.4  
##  7 Adela… Sout… Other            0.584            0.374   5.02e-4     4.29 
##  8 Adela… Sout… Visiti…          0.481            0.228   7.56e+0    34.3  
##  9 Alice… Nort… Busine…          0.526            0.224   1.79e-1    23.8  
## 10 Alice… Nort… Holiday          0.377            0.827   8.13e-1   -19.6  
## # … with 294 more rows, and 3 more variables: curvature <dbl>,
## #   seasonal_peak_year <dbl>, seasonal_trough_year <dbl>
…
